%!PS-Adobe-2.0 EPSF-1.2
%%Creator: MATLAB, The MathWorks, Inc. Version 8.2.0.701 (R2013b). Operating System: Microsoft Windows 8.
%%Title: .\comparison_newlabel.eps
%%CreationDate: 10/19/2016  00:31:16
%%DocumentNeededFonts: Helvetica
%%DocumentProcessColors: Cyan Magenta Yellow Black
%%Extensions: CMYK
%%Pages: 1
%%BoundingBox:    46   188   554   595
%%EndComments

%%BeginProlog
% MathWorks dictionary
/MathWorks 160 dict begin
% definition operators
/bdef {bind def} bind def
/ldef {load def} bind def
/xdef {exch def} bdef
/xstore {exch store} bdef
% operator abbreviations
/c  /clip ldef
/cc /concat ldef
/cp /closepath ldef
/gr /grestore ldef
/gs /gsave ldef
/mt /moveto ldef
/np /newpath ldef
/cm /currentmatrix ldef
/sm /setmatrix ldef
/rm /rmoveto ldef
/rl /rlineto ldef
/s {show newpath} bdef
/sc {setcmykcolor} bdef
/sr /setrgbcolor ldef
/sg /setgray ldef
/w /setlinewidth ldef
/j /setlinejoin ldef
/cap /setlinecap ldef
/rc {rectclip} bdef
/rf {rectfill} bdef
% page state control
/pgsv () def
/bpage {/pgsv save def} bdef
/epage {pgsv restore} bdef
/bplot /gsave ldef
/eplot {stroke grestore} bdef
% orientation switch
/portraitMode 0 def /landscapeMode 1 def /rotateMode 2 def
% coordinate system mappings
/dpi2point 0 def
% font control
/FontSize 0 def
/FMS {/FontSize xstore findfont [FontSize 0 0 FontSize neg 0 0]
  makefont setfont} bdef
/ISOLatin1Encoding where {pop /WindowsLatin1Encoding 256 array bdef
ISOLatin1Encoding WindowsLatin1Encoding copy pop
/.notdef/.notdef/quotesinglbase/florin/quotedblbase/ellipsis/dagger
/daggerdbl/circumflex/perthousand/Scaron/guilsinglleft/OE/.notdef/.notdef
/.notdef/.notdef/quoteleft/quoteright/quotedblleft/quotedblright/bullet
/endash/emdash/tilde/trademark/scaron/guilsinglright/oe/.notdef/.notdef
/Ydieresis WindowsLatin1Encoding 128 32 getinterval astore pop}
{/WindowsLatin1Encoding StandardEncoding bdef} ifelse
/reencode {exch dup where {pop load} {pop StandardEncoding} ifelse
  exch dup 3 1 roll findfont dup length dict begin
  { 1 index /FID ne {def}{pop pop} ifelse } forall
  /Encoding exch def currentdict end definefont pop} bdef
/isroman {findfont /CharStrings get /Agrave known} bdef
/FMSR {3 1 roll 1 index dup isroman {reencode} {pop pop} ifelse
  exch FMS} bdef
/csm {1 dpi2point div -1 dpi2point div scale neg translate
 dup landscapeMode eq {pop -90 rotate}
  {rotateMode eq {90 rotate} if} ifelse} bdef
% line types: solid, dotted, dashed, dotdash
/SO { [] 0 setdash } bdef
/DO { [.5 dpi2point mul 4 dpi2point mul] 0 setdash } bdef
/DA { [6 dpi2point mul] 0 setdash } bdef
/DD { [.5 dpi2point mul 4 dpi2point mul 6 dpi2point mul 4
  dpi2point mul] 0 setdash } bdef
% macros for lines and objects
/L {lineto stroke} bdef
/MP {3 1 roll moveto 1 sub {rlineto} repeat} bdef
/AP {{rlineto} repeat} bdef
/PDlw -1 def
/W {/PDlw currentlinewidth def setlinewidth} def
/PP {closepath eofill} bdef
/DP {closepath stroke} bdef
/MR {4 -2 roll moveto dup  0 exch rlineto exch 0 rlineto
  neg 0 exch rlineto closepath} bdef
/FR {MR stroke} bdef
/PR {MR fill} bdef
/L1i {{currentfile picstr readhexstring pop} image} bdef
/tMatrix matrix def
/MakeOval {newpath tMatrix currentmatrix pop translate scale
0 0 1 0 360 arc tMatrix setmatrix} bdef
/FO {MakeOval stroke} bdef
/PO {MakeOval fill} bdef
/PD {currentlinewidth 2 div 0 360 arc fill
   PDlw -1 eq not {PDlw w /PDlw -1 def} if} def
/FA {newpath tMatrix currentmatrix pop translate scale
  0 0 1 5 -2 roll arc tMatrix setmatrix stroke} bdef
/PA {newpath tMatrix currentmatrix pop	translate 0 0 moveto scale
  0 0 1 5 -2 roll arc closepath tMatrix setmatrix fill} bdef
/FAn {newpath tMatrix currentmatrix pop translate scale
  0 0 1 5 -2 roll arcn tMatrix setmatrix stroke} bdef
/PAn {newpath tMatrix currentmatrix pop translate 0 0 moveto scale
  0 0 1 5 -2 roll arcn closepath tMatrix setmatrix fill} bdef
/vradius 0 def /hradius 0 def /lry 0 def
/lrx 0 def /uly 0 def /ulx 0 def /rad 0 def
/MRR {/vradius xdef /hradius xdef /lry xdef /lrx xdef /uly xdef
  /ulx xdef newpath tMatrix currentmatrix pop ulx hradius add uly
  vradius add translate hradius vradius scale 0 0 1 180 270 arc 
  tMatrix setmatrix lrx hradius sub uly vradius add translate
  hradius vradius scale 0 0 1 270 360 arc tMatrix setmatrix
  lrx hradius sub lry vradius sub translate hradius vradius scale
  0 0 1 0 90 arc tMatrix setmatrix ulx hradius add lry vradius sub
  translate hradius vradius scale 0 0 1 90 180 arc tMatrix setmatrix
  closepath} bdef
/FRR {MRR stroke } bdef
/PRR {MRR fill } bdef
/MlrRR {/lry xdef /lrx xdef /uly xdef /ulx xdef /rad lry uly sub 2 div def
  newpath tMatrix currentmatrix pop ulx rad add uly rad add translate
  rad rad scale 0 0 1 90 270 arc tMatrix setmatrix lrx rad sub lry rad
  sub translate rad rad scale 0 0 1 270 90 arc tMatrix setmatrix
  closepath} bdef
/FlrRR {MlrRR stroke } bdef
/PlrRR {MlrRR fill } bdef
/MtbRR {/lry xdef /lrx xdef /uly xdef /ulx xdef /rad lrx ulx sub 2 div def
  newpath tMatrix currentmatrix pop ulx rad add uly rad add translate
  rad rad scale 0 0 1 180 360 arc tMatrix setmatrix lrx rad sub lry rad
  sub translate rad rad scale 0 0 1 0 180 arc tMatrix setmatrix
  closepath} bdef
/FtbRR {MtbRR stroke } bdef
/PtbRR {MtbRR fill } bdef
/stri 6 array def /dtri 6 array def
/smat 6 array def /dmat 6 array def
/tmat1 6 array def /tmat2 6 array def /dif 3 array def
/asub {/ind2 exch def /ind1 exch def dup dup
  ind1 get exch ind2 get sub exch } bdef
/tri_to_matrix {
  2 0 asub 3 1 asub 4 0 asub 5 1 asub
  dup 0 get exch 1 get 7 -1 roll astore } bdef
/compute_transform {
  dmat dtri tri_to_matrix tmat1 invertmatrix 
  smat stri tri_to_matrix tmat2 concatmatrix } bdef
/ds {stri astore pop} bdef
/dt {dtri astore pop} bdef
/db {2 copy /cols xdef /rows xdef mul dup 3 mul string
  currentfile exch readhexstring pop
  dup 0 3 index getinterval /rbmap xdef
  dup 2 index dup getinterval /gbmap xdef
  1 index dup 2 mul exch getinterval /bbmap xdef pop pop}bdef
/it {gs np dtri aload pop moveto lineto lineto cp c
  cols rows 8 compute_transform 
  rbmap gbmap bbmap true 3 colorimage gr}bdef
/il {newpath moveto lineto stroke}bdef
currentdict end def
%%EndProlog

%%BeginSetup
MathWorks begin

0 cap

end
%%EndSetup

%%Page: 1 1
%%BeginPageSetup
%%PageBoundingBox:    46   188   554   595
MathWorks begin
bpage
%%EndPageSetup

%%BeginObject: obj1
bplot

/dpi2point 12 def
portraitMode 0204 7344 csm

  358   195  6092  4884 MR c np
86 dict begin %Colortable dictionary
/c0 { 0.000000 0.000000 0.000000 sr} bdef
/c1 { 1.000000 1.000000 1.000000 sr} bdef
/c2 { 0.900000 0.000000 0.000000 sr} bdef
/c3 { 0.000000 0.820000 0.000000 sr} bdef
/c4 { 0.000000 0.000000 0.800000 sr} bdef
/c5 { 0.910000 0.820000 0.320000 sr} bdef
/c6 { 1.000000 0.260000 0.820000 sr} bdef
/c7 { 0.000000 0.820000 0.820000 sr} bdef
c0
1 j
1 sg
   0    0 6913 5185 PR
6 w
0 4225 5356 0 0 -4225 899 4614 4 MP
PP
-5356 0 0 4225 5356 0 0 -4225 899 4614 5 MP stroke
4 w
DO
0 sg
 899 4614 mt  899  389 L
 899  389 mt  899  389 L
1791 4614 mt 1791  389 L
1791  389 mt 1791  389 L
2684 4614 mt 2684  389 L
2684  389 mt 2684  389 L
3577 4614 mt 3577  389 L
3577  389 mt 3577  389 L
4469 4614 mt 4469  389 L
4469  389 mt 4469  389 L
5362 4614 mt 5362  389 L
5362  389 mt 5362  389 L
6255 4614 mt 6255  389 L
6255  389 mt 6255  389 L
 899 4614 mt 6255 4614 L
6255 4614 mt 6255 4614 L
 899 4085 mt 6255 4085 L
6255 4085 mt 6255 4085 L
 899 3557 mt 6255 3557 L
6255 3557 mt 6255 3557 L
 899 3029 mt 6255 3029 L
6255 3029 mt 6255 3029 L
 899 2501 mt 6255 2501 L
6255 2501 mt 6255 2501 L
 899 1973 mt 6255 1973 L
6255 1973 mt 6255 1973 L
 899 1445 mt 6255 1445 L
6255 1445 mt 6255 1445 L
 899  917 mt 6255  917 L
6255  917 mt 6255  917 L
 899  389 mt 6255  389 L
6255  389 mt 6255  389 L
SO
6 w
 899  389 mt 6255  389 L
 899 4614 mt 6255 4614 L
6255 4614 mt 6255  389 L
 899 4614 mt  899  389 L
 899 4614 mt 6255 4614 L
 899 4614 mt  899  389 L
 899 4614 mt  899 4560 L
 899  389 mt  899  442 L
%%IncludeResource: font Helvetica
/Helvetica /WindowsLatin1Encoding 168 FMSR

 755 4804 mt 
(-5) s
1791 4614 mt 1791 4560 L
1791  389 mt 1791  442 L
1745 4804 mt 
(0) s
2684 4614 mt 2684 4560 L
2684  389 mt 2684  442 L
2638 4804 mt 
(5) s
3577 4614 mt 3577 4560 L
3577  389 mt 3577  442 L
3484 4804 mt 
(10) s
4469 4614 mt 4469 4560 L
4469  389 mt 4469  442 L
4376 4804 mt 
(15) s
5362 4614 mt 5362 4560 L
5362  389 mt 5362  442 L
5269 4804 mt 
(20) s
6255 4614 mt 6255 4560 L
6255  389 mt 6255  442 L
6162 4804 mt 
(25) s
 899 4614 mt  952 4614 L
6255 4614 mt 6201 4614 L
 771 4676 mt 
(0) s
 899 4085 mt  952 4085 L
6255 4085 mt 6201 4085 L
 631 4147 mt 
(0.5) s
 899 3557 mt  952 3557 L
6255 3557 mt 6201 3557 L
 771 3619 mt 
(1) s
 899 3029 mt  952 3029 L
6255 3029 mt 6201 3029 L
 631 3091 mt 
(1.5) s
 899 2501 mt  952 2501 L
6255 2501 mt 6201 2501 L
 771 2563 mt 
(2) s
 899 1973 mt  952 1973 L
6255 1973 mt 6201 1973 L
 631 2035 mt 
(2.5) s
 899 1445 mt  952 1445 L
6255 1445 mt 6201 1445 L
 771 1507 mt 
(3) s
 899  917 mt  952  917 L
6255  917 mt 6201  917 L
 631  979 mt 
(3.5) s
 899  389 mt  952  389 L
6255  389 mt 6201  389 L
 771  451 mt 
(4) s
 899  389 mt 6255  389 L
 899 4614 mt 6255 4614 L
6255 4614 mt 6255  389 L
 899 4614 mt  899  389 L
gs 899 389 5357 4226 MR c np
24 w
224 0 223 0 223 0 223 0 223 0 223 -5 224 -18 223 -52 
223 -106 223 -174 223 -240 223 -288 224 -314 223 -321 223 -317 223 -305 
223 -291 223 -272 224 -251 223 -225 223 -198 223 -170 223 -142 223 -117 
899 4195 25 MP stroke
gr

24 w
0 j
0 -94 -94 0 0 94 94 0 852 4148 5 MP
DP
0 -94 -94 0 0 94 94 0 1075 4031 5 MP
DP
0 -94 -94 0 0 94 94 0 1298 3889 5 MP
DP
0 -94 -94 0 0 94 94 0 1521 3719 5 MP
DP
0 -94 -94 0 0 94 94 0 1744 3521 5 MP
DP
0 -94 -94 0 0 94 94 0 1967 3296 5 MP
DP
0 -94 -94 0 0 94 94 0 2191 3045 5 MP
DP
0 -94 -94 0 0 94 94 0 2414 2773 5 MP
DP
0 -94 -94 0 0 94 94 0 2637 2482 5 MP
DP
0 -94 -94 0 0 94 94 0 2860 2177 5 MP
DP
0 -94 -94 0 0 94 94 0 3083 1860 5 MP
DP
0 -94 -94 0 0 94 94 0 3306 1539 5 MP
DP
0 -94 -94 0 0 94 94 0 3530 1225 5 MP
DP
0 -94 -94 0 0 94 94 0 3753 937 5 MP
DP
0 -94 -94 0 0 94 94 0 3976 697 5 MP
DP
0 -94 -94 0 0 94 94 0 4199 523 5 MP
DP
0 -94 -94 0 0 94 94 0 4422 417 5 MP
DP
0 -94 -94 0 0 94 94 0 4645 365 5 MP
DP
0 -94 -94 0 0 94 94 0 4869 347 5 MP
DP
0 -94 -94 0 0 94 94 0 5092 342 5 MP
DP
0 -94 -94 0 0 94 94 0 5315 342 5 MP
DP
0 -94 -94 0 0 94 94 0 5538 342 5 MP
DP
0 -94 -94 0 0 94 94 0 5761 342 5 MP
DP
0 -94 -94 0 0 94 94 0 5984 342 5 MP
DP
0 -94 -94 0 0 94 94 0 6208 342 5 MP
DP
gs 899 389 5357 4226 MR c np
gr

%%IncludeResource: font Helvetica
/Helvetica /WindowsLatin1Encoding 204 FMSR

3140 5009 mt 
(SNR \(dB\)) s
%%IncludeResource: font Helvetica
/Helvetica /WindowsLatin1Encoding 168 FMSR

 539 3622 mt  -90 rotate
(Information Rate \(bits/symbol\)) s
90 rotate
gs 899 389 5357 4226 MR c np
DA
/c8 { 0.000000 0.000000 1.000000 sr} bdef
c8
224 -28 223 -24 223 -50 223 -61 223 -83 223 -107 224 -161 223 -183 
223 -218 223 -247 223 -250 223 -264 224 -273 223 -273 223 -242 223 -247 
223 -236 223 -206 224 -207 223 -163 223 -142 223 -133 223 -101 223 -85 
899 4412 25 MP stroke
gr

c8
DA
SO
  60   60  899 4412 FO
  60   60 1122 4327 FO
  60   60 1345 4226 FO
  60   60 1568 4093 FO
  60   60 1791 3951 FO
  60   60 2014 3788 FO
  60   60 2238 3581 FO
  60   60 2461 3375 FO
  60   60 2684 3139 FO
  60   60 2907 2892 FO
  60   60 3130 2650 FO
  60   60 3353 2377 FO
  60   60 3577 2104 FO
  60   60 3800 1840 FO
  60   60 4023 1590 FO
  60   60 4246 1343 FO
  60   60 4469 1125 FO
  60   60 4692  942 FO
  60   60 4916  781 FO
  60   60 5139  674 FO
  60   60 5362  591 FO
  60   60 5585  530 FO
  60   60 5808  480 FO
  60   60 6031  456 FO
  60   60 6255  428 FO
DA
gs 899 389 5357 4226 MR c np
SO
/c9 { 1.000000 0.000000 0.000000 sr} bdef
c9
224 -10 223 -18 223 -27 223 -41 223 -58 223 -81 224 -124 223 -146 
223 -180 223 -213 223 -226 223 -241 224 -245 223 -253 223 -240 223 -229 
223 -230 223 -208 224 -193 223 -167 223 -148 223 -130 223 -99 223 -77 
899 4414 25 MP stroke
gr

c9
SO
  60   60  899 4414 FO
  60   60 1122 4337 FO
  60   60 1345 4238 FO
  60   60 1568 4108 FO
  60   60 1791 3960 FO
  60   60 2014 3793 FO
  60   60 2238 3600 FO
  60   60 2461 3392 FO
  60   60 2684 3162 FO
  60   60 2907 2933 FO
  60   60 3130 2693 FO
  60   60 3353 2440 FO
  60   60 3577 2195 FO
  60   60 3800 1954 FO
  60   60 4023 1728 FO
  60   60 4246 1515 FO
  60   60 4469 1335 FO
  60   60 4692 1189 FO
  60   60 4916 1065 FO
  60   60 5139  984 FO
  60   60 5362  926 FO
  60   60 5585  885 FO
  60   60 5808  858 FO
  60   60 6031  840 FO
  60   60 6255  830 FO
gs 899 389 5357 4226 MR c np
DO
/c10 { 0.000000 1.000000 0.000000 sr} bdef
c10
224 -15 223 -8 223 -18 223 -28 223 -51 223 -73 224 -109 223 -137 
223 -166 223 -191 223 -214 223 -223 224 -230 223 -235 223 -232 223 -220 
223 -209 223 -204 224 -182 223 -171 223 -147 223 -122 223 -95 223 -81 
899 4411 25 MP stroke
gr

c10
DO
SO
  60   60  899 4411 FO
  60   60 1122 4330 FO
  60   60 1345 4235 FO
  60   60 1568 4113 FO
  60   60 1791 3966 FO
  60   60 2014 3795 FO
  60   60 2238 3613 FO
  60   60 2461 3409 FO
  60   60 2684 3200 FO
  60   60 2907 2980 FO
  60   60 3130 2748 FO
  60   60 3353 2513 FO
  60   60 3577 2283 FO
  60   60 3800 2060 FO
  60   60 4023 1846 FO
  60   60 4246 1655 FO
  60   60 4469 1489 FO
  60   60 4692 1352 FO
  60   60 4916 1243 FO
  60   60 5139 1170 FO
  60   60 5362 1119 FO
  60   60 5585 1091 FO
  60   60 5808 1073 FO
  60   60 6031 1065 FO
  60   60 6255 1050 FO
DO
gs 899 389 5357 4226 MR c np
SO
0 sg
224 0 223 0 223 0 223 0 223 0 223 0 224 0 223 0 
223 0 223 0 223 -1 223 -6 224 -19 223 -48 223 -89 223 -134 
223 -175 223 -200 224 -210 223 -204 223 -188 223 -165 223 -140 223 -116 
899 4196 25 MP stroke
gr

0 sg
SO
 839 4196 mt  959 4196 L
 899 4136 mt  899 4256 L
1062 4080 mt 1182 4080 L
1122 4020 mt 1122 4140 L
1285 3940 mt 1405 3940 L
1345 3880 mt 1345 4000 L
1508 3775 mt 1628 3775 L
1568 3715 mt 1568 3835 L
1731 3587 mt 1851 3587 L
1791 3527 mt 1791 3647 L
1954 3383 mt 2074 3383 L
2014 3323 mt 2014 3443 L
2178 3173 mt 2298 3173 L
2238 3113 mt 2238 3233 L
2401 2973 mt 2521 2973 L
2461 2913 mt 2461 3033 L
2624 2798 mt 2744 2798 L
2684 2738 mt 2684 2858 L
2847 2664 mt 2967 2664 L
2907 2604 mt 2907 2724 L
3070 2575 mt 3190 2575 L
3130 2515 mt 3130 2635 L
3293 2527 mt 3413 2527 L
3353 2467 mt 3353 2587 L
3517 2508 mt 3637 2508 L
3577 2448 mt 3577 2568 L
3740 2502 mt 3860 2502 L
3800 2442 mt 3800 2562 L
3963 2501 mt 4083 2501 L
4023 2441 mt 4023 2561 L
4186 2501 mt 4306 2501 L
4246 2441 mt 4246 2561 L
4409 2501 mt 4529 2501 L
4469 2441 mt 4469 2561 L
4632 2501 mt 4752 2501 L
4692 2441 mt 4692 2561 L
4856 2501 mt 4976 2501 L
4916 2441 mt 4916 2561 L
5079 2501 mt 5199 2501 L
5139 2441 mt 5139 2561 L
5302 2501 mt 5422 2501 L
5362 2441 mt 5362 2561 L
5525 2501 mt 5645 2501 L
5585 2441 mt 5585 2561 L
5748 2501 mt 5868 2501 L
5808 2441 mt 5808 2561 L
5971 2501 mt 6091 2501 L
6031 2441 mt 6031 2561 L
6195 2501 mt 6315 2501 L
6255 2441 mt 6255 2561 L
gs 899 389 5357 4226 MR c np
DA
c8
224 0 223 -3 223 -4 223 -7 223 -15 223 -19 224 -30 223 -44 
223 -48 223 -69 223 -80 223 -85 224 -113 223 -122 223 -137 223 -147 
223 -163 223 -164 224 -160 223 -146 223 -131 223 -106 223 -91 223 -66 
899 4452 25 MP stroke
gr

c8
DA
SO
 857 4410 mt  941 4494 L
 941 4410 mt  857 4494 L
1080 4344 mt 1164 4428 L
1164 4344 mt 1080 4428 L
1303 4253 mt 1387 4337 L
1387 4253 mt 1303 4337 L
1526 4147 mt 1610 4231 L
1610 4147 mt 1526 4231 L
1749 4016 mt 1833 4100 L
1833 4016 mt 1749 4100 L
1972 3870 mt 2056 3954 L
2056 3870 mt 1972 3954 L
2196 3710 mt 2280 3794 L
2280 3710 mt 2196 3794 L
2419 3546 mt 2503 3630 L
2503 3546 mt 2419 3630 L
2642 3383 mt 2726 3467 L
2726 3383 mt 2642 3467 L
2865 3236 mt 2949 3320 L
2949 3236 mt 2865 3320 L
3088 3099 mt 3172 3183 L
3172 3099 mt 3088 3183 L
3311 2977 mt 3395 3061 L
3395 2977 mt 3311 3061 L
3535 2864 mt 3619 2948 L
3619 2864 mt 3535 2948 L
3758 2779 mt 3842 2863 L
3842 2779 mt 3758 2863 L
3981 2699 mt 4065 2783 L
4065 2699 mt 3981 2783 L
4204 2630 mt 4288 2714 L
4288 2630 mt 4204 2714 L
4427 2582 mt 4511 2666 L
4511 2582 mt 4427 2666 L
4650 2538 mt 4734 2622 L
4734 2538 mt 4650 2622 L
4874 2508 mt 4958 2592 L
4958 2508 mt 4874 2592 L
5097 2489 mt 5181 2573 L
5181 2489 mt 5097 2573 L
5320 2474 mt 5404 2558 L
5404 2474 mt 5320 2558 L
5543 2467 mt 5627 2551 L
5627 2467 mt 5543 2551 L
5766 2463 mt 5850 2547 L
5850 2463 mt 5766 2547 L
5989 2460 mt 6073 2544 L
6073 2460 mt 5989 2544 L
6213 2460 mt 6297 2544 L
6297 2460 mt 6213 2544 L
DA
gs 899 389 5357 4226 MR c np
SO
c9
224 -2 223 -7 223 -7 223 -11 223 -12 223 -14 224 -22 223 -26 
223 -35 223 -46 223 -50 223 -69 224 -82 223 -101 223 -121 223 -134 
223 -147 223 -153 224 -155 223 -141 223 -128 223 -109 223 -86 223 -64 
899 4456 25 MP stroke
gr

c9
SO
 857 4414 mt  941 4498 L
 941 4414 mt  857 4498 L
1080 4350 mt 1164 4434 L
1164 4350 mt 1080 4434 L
1303 4264 mt 1387 4348 L
1387 4264 mt 1303 4348 L
1526 4155 mt 1610 4239 L
1610 4155 mt 1526 4239 L
1749 4027 mt 1833 4111 L
1833 4027 mt 1749 4111 L
1972 3886 mt 2056 3970 L
2056 3886 mt 1972 3970 L
2196 3731 mt 2280 3815 L
2280 3731 mt 2196 3815 L
2419 3578 mt 2503 3662 L
2503 3578 mt 2419 3662 L
2642 3431 mt 2726 3515 L
2726 3431 mt 2642 3515 L
2865 3297 mt 2949 3381 L
2949 3297 mt 2865 3381 L
3088 3176 mt 3172 3260 L
3172 3176 mt 3088 3260 L
3311 3075 mt 3395 3159 L
3395 3075 mt 3311 3159 L
3535 2993 mt 3619 3077 L
3619 2993 mt 3535 3077 L
3758 2924 mt 3842 3008 L
3842 2924 mt 3758 3008 L
3981 2874 mt 4065 2958 L
4065 2874 mt 3981 2958 L
4204 2828 mt 4288 2912 L
4288 2828 mt 4204 2912 L
4427 2793 mt 4511 2877 L
4511 2793 mt 4427 2877 L
4650 2767 mt 4734 2851 L
4734 2767 mt 4650 2851 L
4874 2745 mt 4958 2829 L
4958 2745 mt 4874 2829 L
5097 2731 mt 5181 2815 L
5181 2731 mt 5097 2815 L
5320 2719 mt 5404 2803 L
5404 2719 mt 5320 2803 L
5543 2708 mt 5627 2792 L
5627 2708 mt 5543 2792 L
5766 2701 mt 5850 2785 L
5850 2701 mt 5766 2785 L
5989 2694 mt 6073 2778 L
6073 2694 mt 5989 2778 L
6213 2692 mt 6297 2776 L
6297 2692 mt 6213 2776 L
gs 899 389 5357 4226 MR c np
DO
c10
224 -9 223 2 223 -9 223 -3 223 -9 223 -10 224 -18 223 -19 
223 -22 223 -33 223 -41 223 -52 224 -64 223 -84 223 -97 223 -113 
223 -123 223 -148 224 -139 223 -137 223 -121 223 -100 223 -91 223 -64 
899 4456 25 MP stroke
gr

c10
DO
SO
 857 4414 mt  941 4498 L
 941 4414 mt  857 4498 L
1080 4350 mt 1164 4434 L
1164 4350 mt 1080 4434 L
1303 4259 mt 1387 4343 L
1387 4259 mt 1303 4343 L
1526 4159 mt 1610 4243 L
1610 4159 mt 1526 4243 L
1749 4038 mt 1833 4122 L
1833 4038 mt 1749 4122 L
1972 3901 mt 2056 3985 L
2056 3901 mt 1972 3985 L
2196 3762 mt 2280 3846 L
2280 3762 mt 2196 3846 L
2419 3614 mt 2503 3698 L
2503 3614 mt 2419 3698 L
2642 3491 mt 2726 3575 L
2726 3491 mt 2642 3575 L
2865 3378 mt 2949 3462 L
2949 3378 mt 2865 3462 L
3088 3281 mt 3172 3365 L
3172 3281 mt 3088 3365 L
3311 3197 mt 3395 3281 L
3395 3197 mt 3311 3281 L
3535 3133 mt 3619 3217 L
3619 3133 mt 3535 3217 L
3758 3081 mt 3842 3165 L
3842 3081 mt 3758 3165 L
3981 3040 mt 4065 3124 L
4065 3040 mt 3981 3124 L
4204 3007 mt 4288 3091 L
4288 3007 mt 4204 3091 L
4427 2985 mt 4511 3069 L
4511 2985 mt 4427 3069 L
4650 2966 mt 4734 3050 L
4734 2966 mt 4650 3050 L
4874 2948 mt 4958 3032 L
4958 2948 mt 4874 3032 L
5097 2938 mt 5181 3022 L
5181 2938 mt 5097 3022 L
5320 2929 mt 5404 3013 L
5404 2929 mt 5320 3013 L
5543 2926 mt 5627 3010 L
5627 2926 mt 5543 3010 L
5766 2917 mt 5850 3001 L
5850 2917 mt 5766 3001 L
5989 2919 mt 6073 3003 L
6073 2919 mt 5989 3003 L
6213 2910 mt 6297 2994 L
6297 2910 mt 6213 2994 L
DO
gs 899 389 5357 4226 MR c np
gr

0 sg
%%IncludeResource: font Helvetica
/Helvetica /WindowsLatin1Encoding 120 FMSR

 882 4657 mt 
( ) s
6239  431 mt 
( ) s
SO
6 w
1 sg
0 1800 2208 0 0 -1800 959 2249 4 MP
PP
-2208 0 0 1800 2208 0 0 -1800 959 2249 5 MP stroke
4 w
DO
SO
6 w
0 sg
 959  449 mt 3167  449 L
 959 2249 mt 3167 2249 L
3167 2249 mt 3167  449 L
 959 2249 mt  959  449 L
 959 2249 mt 3167 2249 L
 959 2249 mt  959  449 L
 959  449 mt 3167  449 L
 959 2249 mt 3167 2249 L
3167 2249 mt 3167  449 L
 959 2249 mt  959  449 L
%%IncludeResource: font Helvetica
/Helvetica /WindowsLatin1Encoding 168 FMSR

1428  640 mt 
(16-QAM, AWGN) s
gs 959 449 2209 1801 MR c np
24 w
360 0 1031 579 2 MP stroke
gr

24 w
gs 1065 433 293 293 MR c np
0 -94 -94 0 0 94 94 0 1164 532 5 MP
DP
gr

gs 959 449 2209 1801 MR c np
gr

1428  860 mt 
(16-QAM, ) s
%%IncludeResource: font Symbol
/Symbol /WindowsLatin1Encoding 168 FMSR

2189  860 mt 
(g) s
%%IncludeResource: font Helvetica
/Helvetica /WindowsLatin1Encoding 168 FMSR

2258  860 mt 
( = 0.4, GK) s
gs 959 449 2209 1801 MR c np
DA
c8
360 0 1031 799 2 MP stroke
SO
gs 1065 653 293 293 MR c np
  60   60 1211  799 FO
gr

gr

c8
0 sg
1428 1080 mt 
(16-QAM, ) s
%%IncludeResource: font Symbol
/Symbol /WindowsLatin1Encoding 168 FMSR

2189 1080 mt 
(g) s
%%IncludeResource: font Helvetica
/Helvetica /WindowsLatin1Encoding 168 FMSR

2258 1080 mt 
( = 0.4, MTR) s
gs 959 449 2209 1801 MR c np
c9
360 0 1031 1019 2 MP stroke
gs 1065 873 293 293 MR c np
  60   60 1211 1019 FO
gr

gr

c9
0 sg
1428 1300 mt 
(16-QAM, ) s
%%IncludeResource: font Symbol
/Symbol /WindowsLatin1Encoding 168 FMSR

2189 1300 mt 
(g) s
%%IncludeResource: font Helvetica
/Helvetica /WindowsLatin1Encoding 168 FMSR

2258 1300 mt 
( = 0.4, ASM) s
gs 959 449 2209 1801 MR c np
DO
c10
360 0 1031 1239 2 MP stroke
SO
gs 1065 1093 293 293 MR c np
  60   60 1211 1239 FO
gr

gr

c10
0 sg
1428 1519 mt 
(  QPSK, AWGN) s
gs 959 449 2209 1801 MR c np
360 0 1031 1458 2 MP stroke
gs 1065 1312 293 293 MR c np
1151 1458 mt 1271 1458 L
1211 1398 mt 1211 1518 L
gr

gr

1428 1739 mt 
(  QPSK, ) s
%%IncludeResource: font Symbol
/Symbol /WindowsLatin1Encoding 168 FMSR

2081 1739 mt 
(g) s
%%IncludeResource: font Helvetica
/Helvetica /WindowsLatin1Encoding 168 FMSR

2150 1739 mt 
( = 0.5, GK) s
gs 959 449 2209 1801 MR c np
DA
c8
360 0 1031 1678 2 MP stroke
SO
gs 1065 1532 293 293 MR c np
1169 1636 mt 1253 1720 L
1253 1636 mt 1169 1720 L
gr

gr

c8
0 sg
1428 1959 mt 
(  QPSK, ) s
%%IncludeResource: font Symbol
/Symbol /WindowsLatin1Encoding 168 FMSR

2081 1959 mt 
(g) s
%%IncludeResource: font Helvetica
/Helvetica /WindowsLatin1Encoding 168 FMSR

2150 1959 mt 
( = 0.5, MTR) s
gs 959 449 2209 1801 MR c np
c9
360 0 1031 1898 2 MP stroke
gs 1065 1752 293 293 MR c np
1169 1856 mt 1253 1940 L
1253 1856 mt 1169 1940 L
gr

gr

c9
0 sg
1428 2179 mt 
(  QPSK, ) s
%%IncludeResource: font Symbol
/Symbol /WindowsLatin1Encoding 168 FMSR

2081 2179 mt 
(g) s
%%IncludeResource: font Helvetica
/Helvetica /WindowsLatin1Encoding 168 FMSR

2150 2179 mt 
( = 0.5, ASM) s
gs 959 449 2209 1801 MR c np
DO
c10
360 0 1031 2118 2 MP stroke
SO
gr

c10
gs 1065 1972 293 293 MR c np
1169 2076 mt 1253 2160 L
1253 2076 mt 1169 2160 L
gr

gs 959 449 2209 1801 MR c np
6 w
gr

6 w

end %%Color Dict

eplot
%%EndObject

epage
end

showpage

%%Trailer
%%EOF
